%YAML 1.1
%TAG !u! tag:unity3d.com,2011:
--- !u!134 &13400000
PhysicMaterial:
  m_ObjectHideFlags: 0
  m_CorrespondingSourceObject: {fileID: 0}
  m_PrefabInternal: {fileID: 0}
  m_Name: BallPhysics
  dynamicFriction: 0
  staticFriction: 15
  bounciness: 1
  frictionCombine: 3
  bounceCombine: 0
